module gitlab.com/ABDURAZZAKK/mailing_go

go 1.20

require (
	github.com/Masterminds/squirrel v1.5.4
	github.com/go-playground/validator/v10 v10.16.0
	github.com/ilyakaznacheev/cleanenv v1.5.0
	github.com/jackc/pgx/v5 v5.5.0
	github.com/pkg/errors v0.9.1
	github.com/rabbitmq/amqp091-go v1.9.0
	github.com/sirupsen/logrus v1.9.3
	github.com/swaggo/echo-swagger v1.4.1
	github.com/swaggo/swag v1.16.2
)

require (
	github.com/KyleBanks/depth v1.2.1 // indirect
	github.com/gabriel-vasile/mimetype v1.4.2 // indirect
	github.com/ghodss/yaml v1.0.0 // indirect
	github.com/go-openapi/jsonpointer v0.20.0 // indirect
	github.com/go-openapi/jsonreference v0.20.2 // indirect
	github.com/go-openapi/spec v0.20.9 // indirect
	github.com/go-openapi/swag v0.22.4 // indirect
	github.com/go-playground/locales v0.14.1 // indirect
	github.com/go-playground/universal-translator v0.18.1 // indirect
	github.com/golang-jwt/jwt v3.2.2+incompatible // indirect
	github.com/josharian/intern v1.0.0 // indirect
	github.com/leodido/go-urn v1.2.4 // indirect
	github.com/mailru/easyjson v0.7.7 // indirect
	github.com/swaggo/files/v2 v2.0.0 // indirect
	golang.org/x/time v0.4.0 // indirect
	golang.org/x/tools v0.15.0 // indirect
	gopkg.in/yaml.v2 v2.4.0 // indirect
)

require (
	github.com/BurntSushi/toml v1.3.2 // indirect
	github.com/jackc/pgpassfile v1.0.0 // indirect
	github.com/jackc/pgservicefile v0.0.0-20221227161230-091c0ba34f0a // indirect
	github.com/jackc/puddle/v2 v2.2.1 // indirect
	github.com/joho/godotenv v1.5.1 // indirect
	github.com/labstack/echo/v4 v4.11.3 // indiset
	github.com/labstack/gommon v0.4.1 // indirect
	github.com/lann/builder v0.0.0-20180802200727-47ae307949d0 // indirect
	github.com/lann/ps v0.0.0-20150810152359-62de8c46ede0 // indirect
	github.com/mattn/go-colorable v0.1.13 // indirect
	github.com/mattn/go-isatty v0.0.20 // indirect
	github.com/rogpeppe/go-internal v1.11.0 // indirect
	github.com/valyala/bytebufferpool v1.0.0 // indirect
	github.com/valyala/fasttemplate v1.2.2 // indirect
	golang.org/x/crypto v0.15.0 // indirect
	golang.org/x/net v0.18.0 // indirect
	golang.org/x/sync v0.5.0 // indirect
	golang.org/x/sys v0.14.0 // indirect
	golang.org/x/text v0.14.0 // indirect
	gopkg.in/yaml.v3 v3.0.1 // indirect
	olympos.io/encoding/edn v0.0.0-20201019073823-d3554ca0b0a3 // indirect
)
